…
forward(mtcars, bar = 100, 1, 2, 3)
grouped_mean <- function(.data, .summary_var, ...) {
  .summary_var <- enquo(.summary_var)

  .data %>%
    group_by(...) %>%
    summarise(mean = mean(!!.summary_var))
}

# Use
grouped_mean(mtcars, disp, cyl, am, vs)
#> # A tibble: 7 x 4
#> # Groups:   cyl, am [?]
#>     cyl    am    vs  mean
#>   <dbl> <dbl> <dbl> <dbl>
#> 1     4     0     1 136. 
#> 2     4     1     0 120. 
#> 3     4     1     1  89.8
#> 4     6     0     1 205. 
#> # ... with 3 more rows
```
…
Example:
```R
grouped_mean2 <- function(.data, .summary_var, ...) {
  summary_var <- enquo(.summary_var)
  group_vars <- enquos(...)

  .data %>%
    group_by(!!!group_vars) %>%
    summarise(mean = mean(!!summary_var))
}

grouped_mean2(mtcars, disp, cyl, am)
#> # A tibble: 6 x 3
#> # Groups:   cyl [?]
#>     cyl    am  mean
#>   <dbl> <dbl> <dbl>
#> 1     4     0 136. 
#> 2     4     1  93.6
#> 3     6     0 205. 
#> 4     6     1 155  
#> # ... with 2 more rows
```
…
